/* XPM */
static char * brightness_xpm[] = {
"15 15 3 1",
" 	c None",
".	c #000000",
"+	c #000600",
"               ",
"               ",
"       ..      ",
"   ..  ..  ..  ",
"   ...    ...  ",
"    . .... .   ",
"     .+  +.    ",
"  .. .    . .. ",
"  .. .    . .. ",
"     .+  +.    ",
"    . .... .   ",
"   ...    ...  ",
"   ..  ..  ..  ",
"       ..      ",
"               "};
