/* XPM */
static char * snap_window_xpm[] = {
"32 16 184 2",
"  	c None",
". 	c #D68284",
"+ 	c #D06668",
"@ 	c #D2706C",
"# 	c #8A8882",
"$ 	c #B0A684",
"% 	c #5E5B58",
"& 	c #18191B",
"* 	c #D4D4D0",
"= 	c #D29A9C",
"- 	c #9C9C9A",
"; 	c #9F9581",
"> 	c #D6C698",
", 	c #82807D",
"' 	c #D2A874",
") 	c #766E5C",
"! 	c #866C50",
"~ 	c #262728",
"{ 	c #606061",
"] 	c #6E6F72",
"^ 	c #949491",
"/ 	c #B4AEA6",
"( 	c #787875",
"_ 	c #A6A5A2",
": 	c #E5CB97",
"< 	c #E6D6A4",
"[ 	c #8F8E8C",
"} 	c #CABA8C",
"| 	c #D2B67C",
"1 	c #74634F",
"2 	c #9A7D59",
"3 	c #0E0E10",
"4 	c #303133",
"5 	c #4C4E51",
"6 	c #72767D",
"7 	c #A1AEC4",
"8 	c #607393",
"9 	c #AAAAAB",
"0 	c #646462",
"a 	c #E6C08C",
"b 	c #E2BA80",
"c 	c #1F2021",
"d 	c #575859",
"e 	c #6E7279",
"f 	c #4F607E",
"g 	c #2C3C5A",
"h 	c #5476AC",
"i 	c #7EA0D8",
"j 	c #7391C0",
"k 	c #737271",
"l 	c #BCBCB7",
"m 	c #DDDCD5",
"n 	c #C2AA7C",
"o 	c #696252",
"p 	c #2A2C2E",
"q 	c #545C69",
"r 	c #6F809C",
"s 	c #5E79A4",
"t 	c #486AA2",
"u 	c #44669E",
"v 	c #50678E",
"w 	c #4E70A8",
"x 	c #7698D0",
"y 	c #607FB3",
"z 	c #353531",
"A 	c #B6B6B4",
"B 	c #FEFEFC",
"C 	c #F2F2F4",
"D 	c #E2E2E4",
"E 	c #7A726C",
"F 	c #A68A6C",
"G 	c #C29665",
"H 	c #99856D",
"I 	c #717073",
"J 	c #546F9A",
"K 	c #698BC3",
"L 	c #6B8DC5",
"M 	c #5071A6",
"N 	c #5F78A1",
"O 	c #5B7DB5",
"P 	c #6587BF",
"Q 	c #617FB2",
"R 	c #2E2E2C",
"S 	c #575654",
"T 	c #E9E9E3",
"U 	c #61513F",
"V 	c #DEB07C",
"W 	c #C8A276",
"X 	c #5F5D61",
"Y 	c #667EA4",
"Z 	c #6789C1",
"` 	c #355282",
" .	c #5C78A7",
"..	c #5375AD",
"+.	c #496490",
"@.	c #6C6C66",
"#.	c #51504D",
"$.	c #414142",
"%.	c #C2C2C0",
"&.	c #CD9F6B",
"*.	c #C29765",
"=.	c #808080",
"-.	c #7E97BE",
";.	c #7496CE",
">.	c #7EA0D7",
",.	c #7799CE",
"'.	c #5C7BAE",
").	c #7A93B3",
"!.	c #80A2D6",
"~.	c #89ABD8",
"{.	c #5774A3",
"].	c #484745",
"^.	c #242424",
"/.	c #828385",
"(.	c #526381",
"_.	c #435B84",
":.	c #4D658E",
"<.	c #486189",
"[.	c #324A72",
"}.	c #2C3C58",
"|.	c #3B537B",
"1.	c #3B5073",
"2.	c #3A3A3A",
"3.	c #DEAA70",
"4.	c #8F8F90",
"5.	c #8EA6CE",
"6.	c #95B7E7",
"7.	c #91B3E4",
"8.	c #7193CB",
"9.	c #5E80B8",
"0.	c #7D95B1",
"a.	c #6C8EC6",
"b.	c #4C6999",
"c.	c #7C644C",
"d.	c #9A7654",
"e.	c #6D5D4A",
"f.	c #949495",
"g.	c #94B0D9",
"h.	c #7799D1",
"i.	c #7A9CD4",
"j.	c #5373A8",
"k.	c #748EB2",
"l.	c #6E90C8",
"m.	c #5775A8",
"n.	c #423A34",
"o.	c #8D6A4A",
"p.	c #827D79",
"q.	c #849ECA",
"r.	c #526F9F",
"s.	c #4D6998",
"t.	c #5A7CB4",
"u.	c #7294CC",
"v.	c #607DAE",
"w.	c #5D4D3C",
"x.	c #75604C",
"y.	c #81776B",
"z.	c #63666A",
"A.	c #687283",
"B.	c #7888A2",
"C.	c #5A7196",
"D.	c #50678F",
"E.	c #5774A5",
"F.	c #6F91C9",
"G.	c #799BD3",
"H.	c #5C79AA",
"I.	c #564A3B",
"J.	c #404040",
"K.	c #686868",
"L.	c #777777",
"M.	c #919191",
"N.	c #87898C",
"O.	c #90949B",
"P.	c #919FB7",
"Q.	c #8096B9",
"R.	c #5E78A4",
"S.	c #505050",
"T.	c #797979",
"U.	c #767676",
"V.	c #8E8E8E",
"W.	c #767777",
"X.	c #37383A",
"Y.	c #474747",
"Z.	c #4C4C4C",
"`.	c #444445",
"        . + @     # $         %                             &   ",
"      * * = + @   - ; >   > , ' )     !                 ~ { ]   ",
"    ^ - / - ( , _ $ ( : < [ } : | 1 ' 2           3 4 5 6 7 8   ",
"  - - _ 9 [ 0 - 9 - [ $ - [ $ > : a b         c d e f g h i j   ",
"  - - 9 - k _ * l _ - ; [ m / ( ; n a ' o p q r s t u v w x y   ",
"- - _ 9 , , ( z z 0 [ # A B C D / E F b G H I J K L M N O P Q   ",
"- ^ 9 - k % R [ A k S % * C T m * - U V V W 2 X Y Z `  .w ..+.  ",
"- ^ 9 # @.z 0 #.$.$.$.z ( * D m %.z U &.*.=.-.;.>.,.'.).!.~.{.  ",
"# - 9 0 [ z #.$.].].$.^.k $.@.l 0 z ! &.  /.(._.:.<.[.}.|.|.1.  ",
"% 0 # S - @.2.$.].].2.].^ ( #.R ^.].2 3.  4.5.6.7.8.9.0.a.L b.  ",
"0 #.#.@.- # 0 ].$.].].^ ^ ^ , #.].c.d.3.e.f.g.h.i.Z j.k.K l.m.  ",
"  0 $.S 0 k 0 #.$.S ^ ^ [ # , 0 % n.c.&.o.p.q.;.i 8.r.s.t.u.v.  ",
"      @.#.S S 0 k , , # # [ ( @.0 0 E w.x.y.z.A.B.C.D.E.F.G.H.  ",
"            S #.#.#.2.#.0 @.% % % 0       I.J.K.L.M.N.O.P.Q.R.  ",
"                , S 2.].#.S #.#.#.                S.T.U.V.W.X.  ",
"                        @.].2.$.                        Y.Z.`.  "};
